[
    {
        "@type": "dcat:Distribution",
        "mediaType": "application/vnd.google-earth.kml+xml",
        "downloadURL": "https://data.cityofchicago.org/api/geospatial/ewfe-5r6t?method=export&format=KML"
    },
    {
        "@type": "dcat:Distribution",
        "mediaType": "application/vnd.google-earth.kmz",
        "downloadURL": "https://data.cityofchicago.org/api/geospatial/ewfe-5r6t?method=export&format=KMZ"
    },
    {
        "@type": "dcat:Distribution",
        "mediaType": "application/zip",
        "downloadURL": "https://data.cityofchicago.org/api/geospatial/ewfe-5r6t?method=export&format=Shapefile"
    },
    {
        "@type": "dcat:Distribution",
        "mediaType": "application/zip",
        "downloadURL": "https://data.cityofchicago.org/api/geospatial/ewfe-5r6t?method=export&format=Original"
    },
    {
        "@type": "dcat:Distribution",
        "mediaType": "application/json",
        "downloadURL": "https://data.cityofchicago.org/api/views/65ce-agii/rows.json?accessType=DOWNLOAD"
    },
    {
        "@type": "dcat:Distribution",
        "mediaType": "application/json",
        "downloadURL": "https://data.cityofchicago.org/api/views/uqb9-wr7e/rows.json?accessType=DOWNLOAD"
    },
    {
        "@type": "dcat:Distribution",
        "mediaType": "text/csv",
        "downloadURL": "https://data.cityofchicago.org/api/views/65ce-agii/rows.csv?accessType=DOWNLOAD"
    },
    {
        "@type": "dcat:Distribution",
        "mediaType": "text/csv",
        "downloadURL": "https://data.cityofchicago.org/api/views/uqb9-wr7e/rows.csv?accessType=DOWNLOAD"
    }
]