{
  "@context": "https://project-open-data.cio.gov/v1.1/schema/catalog.jsonld",
  "@id": "https://data.gotham.gov/data.json",
  "@type": "dcat:Catalog",
  "conformsTo": "https://project-open-data.cio.gov/v1.1/schema",
  "describedBy": "https://project-open-data.cio.gov/v1.1/schema/catalog.json",
  "dataset": [
    {
      "@type": "dcat:Dataset",
      "theme": ["Public Safety"],
      "title": "Penguin-Related Incidents",
      "issued": "2019-02-01",
      "keyword": [
        "penguin",
        "Danny DeVito"
      ],
      "modified": "2019-02-01",
      "publisher": {"name": "data.gotham.gov", "@type": "org:Organization"},
      "identifier": "https://data.gotham.gov/api/views/h659-vn23",
      "accessLevel": "public",
      "description": "lorem ipsum",
      "landingPage": "https://data.gotham.gov/d/h659-vn23",
      "contactPoint": {"fn": "Gotham OpenData", "@type": "vcard:Contact"},
      "distribution": [
        {
          "@type": "dcat:Distribution",
          "mediaType": "text/csv",
          "downloadURL": "https://data.gotham.gov/api/views/h659-vn23/rows.csv?accessType=DOWNLOAD"
        },
        {
          "@type": "dcat:Distribution",
          "mediaType": "application/rdf+xml",
          "downloadURL": "https://data.gotham.gov/api/views/h659-vn23/rows.rdf?accessType=DOWNLOAD"
        },
        {
          "@type": "dcat:Distribution",
          "mediaType": "application/json",
          "downloadURL": "https://data.gotham.gov/api/views/h659-vn23/rows.json?accessType=DOWNLOAD"
        },
        {
          "@type": "dcat:Distribution",
          "mediaType": "application/xml",
          "downloadURL": "https://data.gotham.gov/api/views/h659-vn23/rows.xml?accessType=DOWNLOAD"
        }
      ]
    }
  ]
}
